Implementation of Algorithms that Extend Iterative Proportional Fitting to Nested Structures • mlfit
…
mlfit also provides a function that helps to replicate the reference sample based on the fitted/calibrated weights. See ?ml_replicate to find out which integerisation algorithms are available.

syn_pop <- ml_replicate(fit, algorithm = "trs")
syn_pop
#> # A tibble: 259 x 5
#>     HHNR   PNR  APER CAR   WKSTAT
#>    <int> <int> <int> <chr> <chr> 
#>  1     1     1     3 0     1     
#>  2     1     2     3 0     2     
#>  3     1     3     3 0     3     
#>  4     2     4     3 0     1     
#>  5     2     5     3 0     2     
#>  6     2     6     3 0     3     
#>  7     3     7     2 0     1     
#>  8     3     8     2 0     3     
#>  9     4     9     2 0     1     
#> 10     4    10     2 0     3     
#> # … with 249 more rows
…
