…
Lastly, `ml_replicate()`, as its name suggests, helps to replicate the
reference sample based on the integerised weights.

``` r
syn_pop <- ml_replicate(int_fit)
syn_pop
#> # A tibble: 259 × 5
#>     HHNR   PNR  APER CAR   WKSTAT
#>    <int> <int> <int> <chr> <chr> 
#>  1     1     1     3 0     1     
#>  2     1     2     3 0     2     
#>  3     1     3     3 0     3     
#>  4     2     4     3 0     1     
#>  5     2     5     3 0     2     
#>  6     2     6     3 0     3     
#>  7     3     7     2 0     1     
#>  8     3     8     2 0     3     
#>  9     4     9     2 0     1     
#> 10     4    10     2 0     3     
#> # … with 249 more rows
```
…
result %>%
  ggplot(aes(x = zone, y = srmse, fill = ifelse(id %in% best_combs$id, "Best", "Not best"))) +
  geom_col() +
  facet_grid(integerisation_algorithm ~ fitting_algorithm, scales = "free_x") +
  labs(fill = "", y = "Standardised RMSE")
```

<img src="man/figures/README-plot-eval-result-1.png" width="100%" />

``` r
map(fitted_problems[best_combs$id], ~ ml_replicate(.x))
#> [[1]]
#> # A tibble: 182 × 5
#>     HHNR   PNR  APER HH_VAR P_VAR
#>    <int> <int> <dbl> <chr>  <chr>
#>  1     1     1     3 1      1    
#>  2     1     2     3 1      2    
#>  3     1     3     3 1      3    
#>  4     2     4     3 1      1    
#>  5     2     5     3 1      2    
#>  6     2     6     3 1      3    
#>  7     3     7     3 1      1    
#>  8     3     8     3 1      2    
#>  9     3     9     3 1      3    
#> 10     4    10     3 1      1    
#> # … with 172 more rows
#> 
#> [[2]]
#> # A tibble: 131 × 5
#>     HHNR   PNR  APER HH_VAR P_VAR
#>    <int> <int> <dbl> <chr>  <chr>
#>  1     1     1     3 1      1    
#>  2     1     2     3 1      2    
#>  3     1     3     3 1      3    
#>  4     2     4     3 1      1    
#>  5     2     5     3 1      2    
#>  6     2     6     3 1      3    
#>  7     3     7     3 1      1    
#>  8     3     8     3 1      2    
#>  9     3     9     3 1      3    
#> 10     4    10     3 1      1    
#> # … with 121 more rows
#> 
#> [[3]]
#> # A tibble: 235 × 5
#>     HHNR   PNR  APER HH_VAR P_VAR
#>    <int> <int> <dbl> <chr>  <chr>
#>  1     1     1     3 1      1    
#>  2     1     2     3 1      2    
#>  3     1     3     3 1      3    
#>  4     2     4     3 1      1    
#>  5     2     5     3 1      2    
#>  6     2     6     3 1      3    
#>  7     3     7     3 1      1    
#>  8     3     8     3 1      2    
#>  9     3     9     3 1      3    
#> 10     4    10     3 1      1    
#> # … with 225 more rows
#> 
#> [[4]]
#> # A tibble: 261 × 5
#>     HHNR   PNR  APER HH_VAR P_VAR
#>    <int> <int> <dbl> <chr>  <chr>
#>  1     1     1     3 1      1    
#>  2     1     2     3 1      2    
#>  3     1     3     3 1      3    
#>  4     2     4     3 1      1    
#>  5     2     5     3 1      2    
#>  6     2     6     3 1      3    
#>  7     3     7     3 1      1    
#>  8     3     8     3 1      2    
#>  9     3     9     3 1      3    
#> 10     4    10     3 1      1    
#> # … with 251 more rows
```
…
