Create an instance of a fitting problem — fitting_problem • MultiLevelIPF
…
  5,     3,     2,       2,
  5,     3,     2,       3,
  6,     2,     2,       1,
  6,     2,     2,       2,
  7,     5,     2,       1,
  7,     5,     2,       1,
  7,     5,     2,       2,
  7,     5,     2,       3,
  7,     5,     2,       3,
  8,     2,     2,       1,
  8,     2,     2,       2
)
ye

#> # A tibble: 23 x 4
#>     HHNR  APER HH_VAR P_VAR
#>    <dbl> <dbl>  <dbl> <dbl>
#>  1     1     3      1     1
#>  2     1     3      1     2
#>  3     1     3      1     3
#>  4     2     2      1     1
#>  5     2     2      1     3
#>  6     3     3      1     1
#>  7     3     3      1     1
#>  8     3     3      1     2
#>  9     4     3      2     1
#> 10     4     3      2     3
#> # … with 13 more rows
…
