Create an instance of a fitting problem — ml_problem • mlfit
…
  5, 12, 3, 2, 2,
  5, 13, 3, 2, 2,
  5, 14, 3, 2, 3,
  6, 15, 2, 2, 1,
  6, 16, 2, 2, 2,
  7, 17, 5, 2, 1,
  7, 18, 5, 2, 1,
  7, 19, 5, 2, 2,
  7, 20, 5, 2, 3,
  7, 21, 5, 2, 3,
  8, 22, 2, 2, 1,
  8, 23, 2, 2, 2
)
ye
#> # A tibble: 23 × 5
#>     HHNR   PNR  APER HH_VAR P_VAR
#>    <dbl> <dbl> <dbl>  <dbl> <dbl>
#>  1     1     1     3      1     1
#>  2     1     2     3      1     2
#>  3     1     3     3      1     3
#>  4     2     4     2      1     1
#>  5     2     5     2      1     3
#>  6     3     6     3      1     1
#>  7     3     7     3      1     1
#>  8     3     8     3      1     2
#>  9     4     9     3      2     1
#> 10     4    10     3      2     3
#> # … with 13 more rows
…
