Replicate records in a reference sample based on its fitted weights — ml_replicate • mlfit
…
    The function returns a data.frame.

    References

 Lovelace, R., & Ballas, D. (2013). ‘Truncate, replicate, sample’:
     A method for creating integer weights for spatial microsimulation.
     Computers, Environment and Urban Systems, 41, 1-11.

    Examples

path <- toy_example("Tiny")
fit <- ml_fit(ml_problem = readRDS(path), algorithm = "entropy_o")
syn_pop <- ml_replicate(fit, algorithm = "trs")
syn_pop
#> # A tibble: 260 x 5
#>     HHNR   PNR  APER CAR   WKSTAT
#>    <int> <int> <int> <fct> <fct> 
#>  1     1     1     3 0     1     
#>  2     1     2     3 0     2     
#>  3     1     3     3 0     3     
#>  4     2     4     3 0     1     
#>  5     2     5     3 0     2     
#>  6     2     6     3 0     3     
#>  7     3     7     3 0     1     
#>  8     3     8     3 0     2     
#>  9     3     9     3 0     3     
#> 10     4    10     3 0     1     
#> # … with 250 more rows
…
